%YAML 1.1
%TAG !u! tag:unity3d.com,2011:
--- !u!1 &1587250918974726
GameObject:
  m_ObjectHideFlags: 0
  m_CorrespondingSourceObject: {fileID: 0}
  m_PrefabInstance: {fileID: 0}
  m_PrefabAsset: {fileID: 0}
  serializedVersion: 6
  m_Component:
  - component: {fileID: 4615003313031166}
  - component: {fileID: 114228458808666186}
  - component: {fileID: 54969070811294218}
  - component: {fileID: 135507269612158032}
  m_Layer: 3
  m_Name: NewBullet
  m_TagString: Bullet
  m_Icon: {fileID: 0}
  m_NavMeshLayer: 0
  m_StaticEditorFlags: 0
  m_IsActive: 1
--- !u!4 &4615003313031166
Transform:
  m_ObjectHideFlags: 0
  m_CorrespondingSourceObject: {fileID: 0}
  m_PrefabInstance: {fileID: 0}
  m_PrefabAsset: {fileID: 0}
  m_GameObject: {fileID: 1587250918974726}
  m_LocalRotation: {x: 0, y: 0, z: 0, w: 1}
  m_LocalPosition: {x: 0, y: 0, z: 0}
  m_LocalScale: {x: 1, y: 1, z: 1}
  m_Children: []
  m_Father: {fileID: 0}
  m_RootOrder: 0
  m_LocalEulerAnglesHint: {x: 0, y: 0, z: 0}
--- !u!114 &114228458808666186
MonoBehaviour:
  m_ObjectHideFlags: 0
  m_CorrespondingSourceObject: {fileID: 0}
  m_PrefabInstance: {fileID: 0}
  m_PrefabAsset: {fileID: 0}
  m_GameObject: {fileID: 1587250918974726}
  m_Enabled: 1
  m_EditorHideFlags: 0
  m_Script: {fileID: 11500000, guid: c736e84d8f869d245b3d1dba36061db9, type: 3}
  m_Name: 
  m_EditorClassIdentifier: 
  impactParticle: {fileID: 1199389177536902, guid: 62bd9cb00576bac4fb66f9bcc0adf19d, type: 3}
  projectileParticle: {fileID: 1287730090610360, guid: ada9d5c31c0e29b41bc5056c16b70b62, type: 3}
  muzzleParticle: {fileID: 1450659006645416, guid: c990de991a9e10245b04d95ec88912e5, type: 3}
  trailParticles: []
  colliderRadius: 1
  collideOffset: 0.15
  fireRate: 3
  timeBeforeDestroyed: 5
--- !u!54 &54969070811294218
Rigidbody:
  m_ObjectHideFlags: 0
  m_CorrespondingSourceObject: {fileID: 0}
  m_PrefabInstance: {fileID: 0}
  m_PrefabAsset: {fileID: 0}
  m_GameObject: {fileID: 1587250918974726}
  serializedVersion: 2
  m_Mass: 1
  m_Drag: 0
  m_AngularDrag: 0.05
  m_UseGravity: 0
  m_IsKinematic: 0
  m_Interpolate: 1
  m_Constraints: 0
  m_CollisionDetection: 0
--- !u!135 &135507269612158032
SphereCollider:
  m_ObjectHideFlags: 0
  m_CorrespondingSourceObject: {fileID: 0}
  m_PrefabInstance: {fileID: 0}
  m_PrefabAsset: {fileID: 0}
  m_GameObject: {fileID: 1587250918974726}
  m_Material: {fileID: 0}
  m_IsTrigger: 0
  m_Enabled: 1
  serializedVersion: 2
  m_Radius: 0.07
  m_Center: {x: 0, y: 0, z: 0}
